/home/arthurvidal/dev/workspace/avenueapi/src/main/java/br/com/avenueapi/dao/ProductDAO.java
/home/arthurvidal/dev/workspace/avenueapi/src/main/java/br/com/avenueapi/model/Image.java
/home/arthurvidal/dev/workspace/avenueapi/src/main/java/br/com/avenueapi/dao/impl/ProductDAOImpl.java
/home/arthurvidal/dev/workspace/avenueapi/src/main/java/br/com/avenueapi/dao/GenericDAO.java
/home/arthurvidal/dev/workspace/avenueapi/src/main/java/br/com/avenueapi/service/ProductService.java
/home/arthurvidal/dev/workspace/avenueapi/src/main/java/br/com/avenueapi/service/ImageService.java
/home/arthurvidal/dev/workspace/avenueapi/src/main/java/br/com/avenueapi/connection/ConnectionFactory.java
/home/arthurvidal/dev/workspace/avenueapi/src/main/java/br/com/avenueapi/dao/impl/GenericDAOImpl.java
/home/arthurvidal/dev/workspace/avenueapi/src/main/java/br/com/avenueapi/filter/ProductFilterDTO.java
/home/arthurvidal/dev/workspace/avenueapi/src/main/java/br/com/avenueapi/model/Product.java
/home/arthurvidal/dev/workspace/avenueapi/src/main/java/br/com/avenueapi/dao/impl/ImageDAOImpl.java
/home/arthurvidal/dev/workspace/avenueapi/src/main/java/br/com/avenueapi/dao/ImageDAO.java
